<svg xmlns="http://www.w3.org/2000/svg" width="16" height="8" viewBox="0 0 16 8">
    <path fill="#EFEDE4" fill-rule="evenodd" d="M14.928 6.664a.507.507 0 0 1-.014.747.625.625 0 0 1-.815.014L7.844 1.68 1.807 7.425a.625.625 0 0 1-.815-.014.507.507 0 0 1-.014-.747L7.844.259l7.084 6.405z"/>
</svg>
