<?xml version="1.0" encoding="UTF-8"?>
<svg width="23px" height="23px" viewBox="0 0 23 23" version="1.1" xmlns="http://www.w3.org/2000/svg" xmlns:xlink="http://www.w3.org/1999/xlink">
    <!-- Generator: Sketch 52.3 (67297) - http://www.bohemiancoding.com/sketch -->
    <title>Arrow_Simple_left</title>
    <desc>Created with Sketch.</desc>
    <g id="Arrow_Simple_left" stroke="none" stroke-width="1" fill="none" fill-rule="evenodd">
        <g transform="translate(0.000000, -0.400000)" fill="#382827" id="Shape">
            <g transform="translate(0.000000, -0.000000)">
                <path d="M11.3657143,23.0706667 C11.7315835,23.4144282 12.3017263,23.4042848 12.6553413,23.0477231 C13.0089562,22.6911613 13.0190157,22.1162673 12.6780952,21.7473492 L2.77333333,11.7600476 L12.6780952,2.12230159 C13.0190157,1.75338346 13.0089562,1.17848945 12.6553413,0.821927707 C12.3017263,0.465365963 11.7315835,0.455222629 11.3657143,0.798984127 L0.321904762,11.7600476 L11.3657143,23.0706667 Z"></path>
            </g>
        </g>
    </g>
</svg>