<?xml version="1.0" encoding="UTF-8"?>
<svg width="360px" height="512px" viewBox="0 0 360 512" version="1.1" xmlns="http://www.w3.org/2000/svg" xmlns:xlink="http://www.w3.org/1999/xlink">
    <!-- Generator: Sketch 52.3 (67297) - http://www.bohemiancoding.com/sketch -->
    <title>illust-intro</title>
    <desc>Created with Sketch.</desc>
    <defs>
        <polygon id="path-1" points="0.5461 0.0088267622 128 0.0088267622 128 212.4205 0.5461 212.4205"></polygon>
        <polygon id="path-3" points="0 292 403 292 403 0.403 0 0.403"></polygon>
        <path d="M12.875,23.87 C12.792,23.868 12.715,23.846 12.631,23.846 C5.923,23.846 0.485,29.284 0.485,35.992 C0.485,42.701 5.923,48.139 12.631,48.139 C13.362,48.139 14.068,48.047 14.763,47.925 C20.091,58.829 31.258,66.36 44.213,66.36 C57.168,66.36 68.336,58.829 73.664,47.925 C74.358,48.047 75.066,48.139 75.795,48.139 C82.504,48.139 87.943,42.701 87.943,35.992 C87.943,29.284 82.504,23.846 75.795,23.846 C75.711,23.846 75.634,23.868 75.551,23.87 C71.417,10.489 58.952,0.767 44.213,0.767 C29.474,0.767 17.01,10.489 12.875,23.87" id="path-5"></path>
        <path d="M12.875,23.87 C12.792,23.868 12.715,23.846 12.631,23.846 C5.923,23.846 0.485,29.284 0.485,35.992 C0.485,42.701 5.923,48.139 12.631,48.139 C13.362,48.139 14.068,48.047 14.763,47.925 C20.091,58.829 31.258,66.36 44.213,66.36 C57.168,66.36 68.336,58.829 73.664,47.925 C74.358,48.047 75.066,48.139 75.795,48.139 C82.504,48.139 87.943,42.701 87.943,35.992 C87.943,29.284 82.504,23.846 75.795,23.846 C75.711,23.846 75.634,23.868 75.551,23.87 C71.417,10.489 58.952,0.767 44.213,0.767 C29.474,0.767 17.01,10.489 12.875,23.87" id="path-7"></path>
        <polygon id="path-9" points="0 292 403 292 403 0.403 0 0.403"></polygon>
        <path d="M13.227,23.156 C13.144,23.155 13.067,23.132 12.982,23.132 C6.274,23.132 0.836,28.57 0.836,35.279 C0.836,41.987 6.274,47.426 12.982,47.426 C13.713,47.426 14.419,47.335 15.115,47.21 C20.443,58.116 31.61,65.646 44.564,65.646 C57.52,65.646 68.687,58.116 74.016,47.21 C74.711,47.335 75.416,47.426 76.147,47.426 C82.856,47.426 88.294,41.987 88.294,35.279 C88.294,28.57 82.856,23.132 76.147,23.132 C76.062,23.132 75.986,23.155 75.902,23.156 C71.768,9.775 59.303,0.052 44.564,0.052 C29.827,0.052 17.362,9.775 13.227,23.156" id="path-11"></path>
        <path d="M13.227,23.156 C13.144,23.155 13.067,23.132 12.982,23.132 C6.274,23.132 0.836,28.57 0.836,35.279 C0.836,41.987 6.274,47.426 12.982,47.426 C13.713,47.426 14.419,47.335 15.115,47.21 C20.443,58.116 31.61,65.646 44.564,65.646 C57.52,65.646 68.687,58.116 74.016,47.21 C74.711,47.335 75.416,47.426 76.147,47.426 C82.856,47.426 88.294,41.987 88.294,35.279 C88.294,28.57 82.856,23.132 76.147,23.132 C76.062,23.132 75.986,23.155 75.902,23.156 C71.768,9.775 59.303,0.052 44.564,0.052 C29.827,0.052 17.362,9.775 13.227,23.156" id="path-13"></path>
        <polygon id="path-15" points="0 292 403 292 403 0.403 0 0.403"></polygon>
        <path d="M9.975,18.541 C9.909,18.54 9.847,18.523 9.78,18.523 C4.44,18.523 0.111,22.852 0.111,28.191 C0.111,33.532 4.44,37.861 9.78,37.861 C10.362,37.861 10.924,37.788 11.477,37.69 C15.719,46.37 24.609,52.365 34.92,52.365 C45.233,52.365 54.122,46.37 58.364,37.69 C58.917,37.788 59.48,37.861 60.061,37.861 C65.401,37.861 69.73,33.532 69.73,28.191 C69.73,22.852 65.401,18.523 60.061,18.523 C59.994,18.523 59.933,18.54 59.866,18.541 C56.576,7.891 46.652,0.151 34.92,0.151 C23.188,0.151 13.266,7.891 9.975,18.541 Z" id="path-17"></path>
        <path d="M10.075,18.641 C10.01,18.639 9.95,18.621 9.884,18.621 C4.648,18.621 0.402,22.867 0.402,28.103 C0.402,33.338 4.648,37.584 9.884,37.584 C10.454,37.584 11.005,37.512 11.548,37.416 C15.707,45.927 24.423,51.805 34.535,51.805 C44.646,51.805 53.363,45.927 57.522,37.416 C58.064,37.512 58.615,37.584 59.186,37.584 C64.422,37.584 68.667,33.338 68.667,28.103 C68.667,22.867 64.422,18.621 59.186,18.621 C59.12,18.621 59.06,18.639 58.995,18.641 C55.768,8.197 46.039,0.608 34.535,0.608 C23.03,0.608 13.302,8.197 10.075,18.641" id="path-19"></path>
        <path d="M10.075,18.641 C10.01,18.639 9.95,18.621 9.884,18.621 C4.648,18.621 0.402,22.867 0.402,28.103 C0.402,33.338 4.648,37.584 9.884,37.584 C10.454,37.584 11.005,37.512 11.548,37.416 C15.707,45.927 24.423,51.805 34.535,51.805 C44.646,51.805 53.363,45.927 57.522,37.416 C58.064,37.512 58.615,37.584 59.186,37.584 C64.422,37.584 68.667,33.338 68.667,28.103 C68.667,22.867 64.422,18.621 59.186,18.621 C59.12,18.621 59.06,18.639 58.995,18.641 C55.768,8.197 46.039,0.608 34.535,0.608 C23.03,0.608 13.302,8.197 10.075,18.641" id="path-21"></path>
        <polygon id="path-23" points="0 299 403 299 403 0.403 0 0.403"></polygon>
        <polygon id="path-25" points="0.0007 0.055 60.6567 0.055 60.6567 60.7108 0.0007 60.7108"></polygon>
        <polygon id="path-27" points="0.1547 0.5287 47.712 0.5287 47.712 33.9997 0.1547 33.9997"></polygon>
        <polygon id="path-29" points="0.0004 0.6982 29.2824 0.6982 29.2824 16 0.0004 16"></polygon>
    </defs>
    <g id="onboarding" stroke="none" stroke-width="1" fill="none" fill-rule="evenodd">
        <g id="intro" transform="translate(0.000000, -125.000000)">
            <g id="illust-intro" transform="translate(-22.000000, 124.000000)">
                <rect id="Rectangle" fill="#FFFFFF" x="147" y="411" width="108" height="101"></rect>
                <g id="Group-151" transform="translate(0.000000, 213.000000)">
                    <g id="Group-34" transform="translate(0.000000, 0.597000)">
                        <path d="M194.8109,183.8894 C194.8109,183.8894 246.0759,137.9954 306.4649,161.4224 L348.8849,142.7154 C361.4299,137.1834 376.2199,142.9204 381.7519,155.4654 C387.2849,168.0104 381.5469,182.8004 369.0019,188.3324 L315.6679,211.8534 L287.6839,254.5974 L236.0379,277.3734 L194.8109,183.8894 Z" id="Fill-1" fill="#E5E3DC"></path>
                        <path d="M368.7962,164.1629 L305.7412,111.9009 C297.3642,104.9589 284.8312,106.1319 277.8892,114.5079 L275.7612,117.0749 C268.8182,125.4509 269.9922,137.9839 278.3682,144.9269 L341.4242,197.1889 C349.8002,204.1319 362.3332,202.9579 369.2752,194.5819 L371.4032,192.0159 C378.3462,183.6389 377.1722,171.1049 368.7962,164.1629" id="Fill-3" fill="#E5E3DC"></path>
                        <path d="M385.6536,151.4871 L319.0886,75.2041 C311.3326,66.3161 297.7156,65.3901 288.8266,73.1461 C279.9386,80.9011 279.0116,94.5191 286.7676,103.4071 L353.3346,179.6901 C361.0906,188.5781 374.7076,189.5051 383.5946,181.7491 C392.4836,173.9931 393.4096,160.3761 385.6536,151.4871" id="Fill-5" fill="#E5E3DC"></path>
                        <path d="M393.0062,159.0818 L346.4252,53.4558 C341.6652,42.6628 328.9402,37.7268 318.1472,42.4858 C307.3542,47.2458 302.4172,59.9708 307.1772,70.7648 L353.7582,176.3898 C358.5182,187.1838 371.2432,192.1188 382.0362,187.3588 C392.8292,182.5998 397.7662,169.8748 393.0062,159.0818" id="Fill-7" fill="#E5E3DC"></path>
                        <g id="Group-11" transform="translate(275.000000, 65.000000)">
                            <mask id="mask-2" fill="white">
                                <use xlink:href="#path-1"></use>
                            </mask>
                            <g id="Clip-10"></g>
                            <path d="M84.0101,90.7215 L56.7661,28.9455 C52.1721,18.5285 56.8931,6.3605 67.3091,1.7665 C70.3151,0.4415 73.4651,-0.1085 76.5371,0.0295 C84.1161,0.3695 91.2191,4.8985 94.4881,12.3095 L128.0001,88.2995 L101.1381,168.0605 L0.5461,212.4205 L84.0101,90.7215 Z" id="Fill-9" fill="#EFEDE4" mask="url(#mask-2)"></path>
                        </g>
                        <path d="M359.0101,156.6316 C358.6611,156.6316 358.3261,156.4306 358.1771,156.0886 L330.9351,94.3126 C328.6121,89.0526 328.4791,83.2046 330.5601,77.8426 C332.6381,72.4836 336.6811,68.2536 341.9431,65.9336 C345.0101,64.5806 348.2461,63.9716 351.5771,64.1176 C352.0801,64.1426 352.4691,64.5666 352.4481,65.0686 C352.4241,65.5716 352.0391,65.9666 351.4961,65.9406 C348.4431,65.7926 345.4871,66.3616 342.6781,67.5986 C337.8621,69.7246 334.1611,73.5966 332.2581,78.5026 C330.3561,83.4086 330.4771,88.7636 332.6001,93.5766 L359.8431,155.3536 C360.0471,155.8136 359.8381,156.3526 359.3781,156.5536 C359.2591,156.6086 359.1331,156.6316 359.0101,156.6316" id="Fill-12" fill="#A4928F"></path>
                        <path d="M347.1546,161.8611 C346.8056,161.8611 346.4716,161.6591 346.3226,161.3171 L305.3926,68.5091 C305.1886,68.0491 305.3976,67.5101 305.8576,67.3091 C306.3126,67.1001 306.8536,67.3111 307.0576,67.7741 L347.9876,160.5821 C348.1916,161.0431 347.9826,161.5811 347.5226,161.7821 C347.4036,161.8371 347.2786,161.8611 347.1546,161.8611" id="Fill-14" fill="#A4928F"></path>
                        <path d="M340.7308,164.8357 C340.4768,164.8357 340.2248,164.7297 340.0438,164.5227 L290.7588,108.0437 C290.4268,107.6667 290.4678,107.0907 290.8468,106.7607 C291.2218,106.4287 291.7978,106.4687 292.1308,106.8487 L341.4168,163.3267 C341.7488,163.7037 341.7078,164.2807 341.3288,164.6097 C341.1578,164.7627 340.9438,164.8357 340.7308,164.8357" id="Fill-16" fill="#A4928F"></path>
                        <mask id="mask-4" fill="white">
                            <use xlink:href="#path-3"></use>
                        </mask>
                        <g id="Clip-19"></g>
                        <polygon id="Fill-18" fill="#FFFFFF" mask="url(#mask-4)" points="284.818 131.755 301.901 131.755 301.901 114.671 284.818 114.671"></polygon>
                        <path d="M208.1898,183.8894 C208.1898,183.8894 156.9248,137.9954 96.5348,161.4224 L54.1158,142.7154 C41.5708,137.1834 26.7798,142.9204 21.2478,155.4654 C15.7148,168.0104 21.4528,182.8004 33.9978,188.3324 L87.3318,211.8534 L115.3168,254.5974 L166.9618,277.3734 L208.1898,183.8894 Z" id="Fill-20" fill="#E5E3DC" mask="url(#mask-4)"></path>
                        <path d="M34.2034,164.1629 L97.2594,111.9009 C105.6354,104.9589 118.1684,106.1319 125.1104,114.5079 L127.2384,117.0749 C134.1814,125.4509 133.0084,137.9839 124.6324,144.9269 L61.5764,197.1889 C53.2004,204.1319 40.6664,202.9579 33.7244,194.5819 L31.5974,192.0159 C24.6544,183.6389 25.8274,171.1049 34.2034,164.1629" id="Fill-21" fill="#E5E3DC" mask="url(#mask-4)"></path>
                        <path d="M17.346,151.4871 L83.911,75.2041 C91.667,66.3161 105.285,65.3901 114.173,73.1461 C123.061,80.9011 123.988,94.5191 116.232,103.4071 L49.666,179.6901 C41.91,188.5781 28.292,189.5051 19.405,181.7491 C10.517,173.9931 9.59,160.3761 17.346,151.4871" id="Fill-22" fill="#E5E3DC" mask="url(#mask-4)"></path>
                        <path d="M9.9935,159.0818 L56.5755,53.4558 C61.3355,42.6628 74.0595,37.7268 84.8535,42.4858 C95.6465,47.2458 100.5835,59.9708 95.8235,70.7648 L49.2415,176.3898 C44.4815,187.1838 31.7575,192.1188 20.9635,187.3588 C10.1705,182.5998 5.2335,169.8748 9.9935,159.0818" id="Fill-23" fill="#E5E3DC" mask="url(#mask-4)"></path>
                        <path d="M43.9905,155.7215 L71.2335,93.9455 C75.8275,83.5285 71.1075,71.3605 60.6905,66.7665 C57.6855,65.4415 54.5355,64.8915 51.4625,65.0295 C43.8845,65.3695 36.7805,69.8985 33.5115,77.3095 L0.0005,153.2995 L26.8615,233.0605 L127.4535,277.4205 L43.9905,155.7215 Z" id="Fill-24" fill="#EFEDE4" mask="url(#mask-4)"></path>
                        <path d="M43.9915,156.6316 C43.8685,156.6316 43.7425,156.6086 43.6235,156.5536 C43.1635,156.3526 42.9545,155.8136 43.1585,155.3536 L70.4015,93.5766 C74.7835,83.6386 70.2635,71.9856 60.3235,67.5986 C57.5135,66.3616 54.5515,65.7906 51.5025,65.9406 C50.9475,65.9406 50.5745,65.5696 50.5515,65.0686 C50.5295,64.5666 50.9195,64.1426 51.4225,64.1176 C54.7265,63.9716 57.9885,64.5806 61.0585,65.9336 C71.9175,70.7236 76.8565,83.4536 72.0665,94.3126 L44.8245,156.0886 C44.6755,156.4306 44.3405,156.6316 43.9915,156.6316" id="Fill-25" fill="#A4928F" mask="url(#mask-4)"></path>
                        <path d="M55.847,161.8611 C55.723,161.8611 55.597,161.8371 55.479,161.7821 C55.019,161.5811 54.81,161.0431 55.014,160.5821 L95.941,67.7741 C96.143,67.3111 96.688,67.1001 97.141,67.3091 C97.602,67.5101 97.811,68.0491 97.607,68.5091 L56.679,161.3171 C56.53,161.6591 56.196,161.8611 55.847,161.8611" id="Fill-26" fill="#A4928F" mask="url(#mask-4)"></path>
                        <path d="M62.2708,164.8357 C62.0578,164.8357 61.8438,164.7627 61.6728,164.6097 C61.2928,164.2807 61.2528,163.7037 61.5848,163.3267 L110.8708,106.8487 C111.2028,106.4687 111.7798,106.4287 112.1548,106.7607 C112.5338,107.0907 112.5748,107.6667 112.2428,108.0437 L62.9568,164.5227 C62.7768,164.7297 62.5248,164.8357 62.2708,164.8357" id="Fill-27" fill="#A4928F" mask="url(#mask-4)"></path>
                        <path d="M337.8919,145.531 C328.1739,132.17 319.5249,114.593 303.0009,114.593 L300.0479,114.593 L292.5349,127.607 L285.0209,114.593 L284.0109,114.593 C267.4869,114.593 259.7379,121.433 242.7319,140.868 C242.7319,140.868 208.7199,179.738 228.1559,198.725 L337.4549,198.725 L337.8919,145.531 Z" id="Fill-28" fill="#FFD62C" mask="url(#mask-4)"></path>
                        <path d="M323.7952,72.8455 C323.7112,72.8455 323.6342,72.8675 323.5512,72.8695 C319.4172,59.4895 306.9522,49.7665 292.2132,49.7665 C277.4752,49.7665 265.0102,59.4895 260.8752,72.8695 C260.7922,72.8675 260.7152,72.8455 260.6312,72.8455 C253.9232,72.8455 248.4842,78.2835 248.4842,84.9915 C248.4842,91.7005 253.9232,97.1395 260.6312,97.1395 C261.3612,97.1395 262.0682,97.0475 262.7632,96.9245 C268.0912,107.8285 279.2582,115.3605 292.2132,115.3605 C305.1682,115.3605 316.3352,107.8285 321.6642,96.9245 C322.3582,97.0475 323.0662,97.1395 323.7952,97.1395 C330.5042,97.1395 335.9422,91.7005 335.9422,84.9915 C335.9422,78.2835 330.5042,72.8455 323.7952,72.8455" id="Fill-29" fill="#FFFFFF" mask="url(#mask-4)"></path>
                        <path d="M292.2132,49.7664 C277.4752,49.7664 265.0102,59.4894 260.8752,72.8704 C260.7922,72.8684 260.7152,72.8454 260.6312,72.8454 C253.9232,72.8454 248.4842,78.2844 248.4842,84.9924 C248.4842,91.7014 253.9232,97.1394 260.6312,97.1394 C261.3612,97.1394 262.0682,97.0474 262.7632,96.9244 C268.0912,107.8294 279.2592,115.3604 292.2132,115.3604 C305.1682,115.3604 316.3352,107.8294 321.6642,96.9244 C322.3592,97.0474 323.0662,97.1394 323.7952,97.1394 C330.5042,97.1394 335.9422,91.7014 335.9422,84.9924 C335.9422,78.2844 330.5042,72.8454 323.7952,72.8454 C323.7122,72.8454 323.6342,72.8684 323.5512,72.8704 C319.4172,59.4894 306.9522,49.7664 292.2132,49.7664 M292.2132,51.5884 C305.8842,51.5884 317.7772,60.3574 321.8102,73.4084 L322.2152,74.7184 L323.5862,74.6924 L323.8422,74.6724 L323.8802,74.6674 C329.5342,74.7134 334.1202,79.3274 334.1202,84.9924 C334.1202,90.6854 329.4882,95.3174 323.7952,95.3174 C323.2682,95.3174 322.7092,95.2594 321.9842,95.1304 L320.6302,94.8894 L320.0262,96.1244 C314.7782,106.8654 304.1212,113.5374 292.2132,113.5374 C280.3062,113.5374 269.6492,106.8654 264.4002,96.1244 L263.7962,94.8894 L262.4432,95.1304 C261.7182,95.2594 261.1582,95.3174 260.6312,95.3174 C254.9382,95.3174 250.3072,90.6854 250.3072,84.9924 C250.3072,79.3264 254.8962,74.7104 260.5522,74.6674 L260.7242,74.6894 L260.8402,74.6924 L262.2122,74.7184 L262.6162,73.4084 C266.6492,60.3574 278.5432,51.5884 292.2132,51.5884" id="Fill-30" fill="#382827" mask="url(#mask-4)"></path>
                        <path d="M292.2142,98.3552 C281.8652,98.3552 279.0942,93.0502 278.9802,92.8252 C278.6812,92.2242 278.9232,91.4962 279.5242,91.1952 C280.1232,90.8982 280.8452,91.1382 281.1462,91.7262 C281.2532,91.9232 283.5142,95.9252 292.2142,95.9252 C300.9442,95.9252 303.1892,91.8972 303.2812,91.7242 C303.5922,91.1402 304.3222,90.9052 304.9132,91.2092 C305.5042,91.5152 305.7432,92.2292 305.4472,92.8252 C305.3332,93.0502 302.5632,98.3552 292.2142,98.3552" id="Fill-31" fill="#FF8F71" mask="url(#mask-4)"></path>
                        <path d="M282.4964,82.2605 C281.9934,82.2605 281.5854,81.8525 281.5854,81.3495 C281.5854,79.8425 280.3584,78.6155 278.8514,78.6155 C277.3464,78.6155 276.1194,79.8425 276.1194,81.3495 C276.1194,81.8525 275.7114,82.2605 275.2084,82.2605 C274.7054,82.2605 274.2974,81.8525 274.2974,81.3495 C274.2974,78.8365 276.3404,76.7935 278.8514,76.7935 C281.3644,76.7935 283.4074,78.8365 283.4074,81.3495 C283.4074,81.8525 282.9994,82.2605 282.4964,82.2605" id="Fill-32" fill="#382827" mask="url(#mask-4)"></path>
                        <path d="M309.2191,82.2605 C308.7161,82.2605 308.3091,81.8525 308.3091,81.3495 C308.3091,79.8425 307.0821,78.6155 305.5751,78.6155 C304.0691,78.6155 302.8421,79.8425 302.8421,81.3495 C302.8421,81.8525 302.4341,82.2605 301.9311,82.2605 C301.4281,82.2605 301.0201,81.8525 301.0201,81.3495 C301.0201,78.8365 303.0631,76.7935 305.5751,76.7935 C308.0881,76.7935 310.1301,78.8365 310.1301,81.3495 C310.1301,81.8525 309.7221,82.2605 309.2191,82.2605" id="Fill-33" fill="#382827" mask="url(#mask-4)"></path>
                    </g>
                    <g id="Group-41" transform="translate(248.000000, 49.597000)">
                        <g id="Group-37">
                            <mask id="mask-6" fill="white">
                                <use xlink:href="#path-5"></use>
                            </mask>
                            <g id="Clip-36"></g>
                            <path d="M45.428,3.1951 C45.428,15.9421 35.095,26.2751 22.349,26.2751 C9.603,26.2751 1.634,14.7271 1.634,1.9811 C1.634,-10.7659 9.603,-19.8839 22.349,-19.8839 C35.095,-19.8839 45.428,-9.5509 45.428,3.1951" id="Fill-35" fill="#382827" mask="url(#mask-6)"></path>
                        </g>
                        <g id="Group-40">
                            <mask id="mask-8" fill="white">
                                <use xlink:href="#path-7"></use>
                            </mask>
                            <g id="Clip-39"></g>
                            <path d="M89.1575,3.1951 C93.9515,11.6981 78.8245,26.2751 66.0785,26.2751 C53.3315,26.2751 42.9985,15.9421 42.9985,3.1951 C42.9985,-9.5509 53.3315,-19.8839 66.0785,-19.8839 C78.8245,-19.8839 84.3625,-5.3069 89.1575,3.1951" id="Fill-38" fill="#382827" mask="url(#mask-8)"></path>
                        </g>
                    </g>
                    <g id="Group-71" transform="translate(0.000000, 0.597000)">
                        <path d="M324.0384,43.6931 C324.0384,53.0851 316.4254,60.6981 307.0324,60.6981 C297.6414,60.6981 290.0264,53.0851 290.0264,43.6931 C290.0264,34.3001 297.6414,26.6871 307.0324,26.6871 C316.4254,26.6871 324.0384,34.3001 324.0384,43.6931" id="Fill-42" fill="#382827"></path>
                        <path d="M319.5843,111.0115 C319.1343,110.2985 318.6133,109.6135 318.0183,108.9665 C313.2213,103.7555 305.5303,103.0325 300.8403,107.3495 C296.1503,111.6665 296.2383,119.3915 301.0353,124.6025 C301.6303,125.2475 302.2713,125.8245 302.9433,126.3305" id="Fill-44" fill="#FFFFFF"></path>
                        <path d="M302.9446,127.242 C302.7526,127.242 302.5596,127.182 302.3956,127.059 C301.6606,126.504 300.9776,125.885 300.3636,125.219 C297.8906,122.533 296.5076,119.136 296.4666,115.65 C296.4296,112.13 297.7626,108.943 300.2226,106.678 C305.2766,102.03 313.5606,102.777 318.6876,108.35 C319.3016,109.014 319.8646,109.748 320.3556,110.526 C320.6236,110.95 320.4956,111.515 320.0706,111.783 C319.6436,112.047 319.0816,111.926 318.8136,111.499 C318.3826,110.812 317.8876,110.17 317.3496,109.584 C312.8986,104.751 305.7646,104.047 301.4566,108.02 C299.3816,109.93 298.2566,112.633 298.2896,115.632 C298.3256,118.663 299.5376,121.631 301.7036,123.984 C302.2446,124.571 302.8466,125.116 303.4926,125.602 C303.8926,125.906 303.9736,126.478 303.6736,126.879 C303.4926,127.116 303.2186,127.242 302.9446,127.242" id="Fill-46" fill="#382827"></path>
                        <path d="M305.6204,117.8543 C305.3884,117.8543 305.1524,117.7643 304.9744,117.5853 L298.1044,110.7123 C297.7484,110.3573 297.7514,109.7813 298.1064,109.4243 C298.4584,109.0693 299.0394,109.0713 299.3944,109.4273 L306.2664,116.3003 C306.6214,116.6563 306.6194,117.2323 306.2634,117.5883 C306.0884,117.7663 305.8524,117.8543 305.6204,117.8543" id="Fill-48" fill="#382827"></path>
                        <path d="M309.7435,113.7312 C309.5115,113.7312 309.2765,113.6432 309.0985,113.4652 L302.2275,106.5942 C301.8745,106.2392 301.8745,105.6602 302.2275,105.3032 C302.5835,104.9482 303.1625,104.9482 303.5185,105.3032 L310.3895,112.1742 C310.7425,112.5302 310.7425,113.1092 310.3895,113.4652 C310.2115,113.6432 309.9755,113.7312 309.7435,113.7312" id="Fill-50" fill="#382827"></path>
                        <path d="M299.9222,130.4148 L324.0382,106.2578 L363.3252,145.5448 C363.3252,145.5448 371.8222,182.0518 337.4552,181.6468 L337.4552,198.7258 L307.0322,198.2628 L299.9222,130.4148 Z" id="Fill-52" fill="#FFD62C"></path>
                        <path d="M343.1429,179.7302 C342.8939,179.7302 342.6429,179.6272 342.4639,179.4262 L299.2439,131.0212 C298.9069,130.6462 298.9399,130.0702 299.3149,129.7352 C299.6899,129.3982 300.2709,129.4312 300.5999,129.8062 L343.8219,178.2112 C344.1589,178.5862 344.1249,179.1632 343.7499,179.4982 C343.5779,179.6542 343.3589,179.7302 343.1429,179.7302" id="Fill-54" fill="#382827"></path>
                        <path d="M308.4818,80.073 C308.0048,80.073 307.6038,79.703 307.5728,79.219 C307.5398,78.716 307.9218,78.284 308.4248,78.254 L312.2658,78.011 C312.7858,77.937 313.2008,78.36 313.2318,78.863 C313.2648,79.366 312.8818,79.798 312.3788,79.829 L308.5388,80.07 C308.5198,80.073 308.5008,80.073 308.4818,80.073" id="Fill-56" fill="#382827"></path>
                        <path d="M275.8821,80.073 C275.8621,80.073 275.8441,80.073 275.8241,80.07 L271.9841,79.829 C271.4811,79.798 271.0991,79.366 271.1321,78.863 C271.1631,78.36 271.5971,77.933 272.0981,78.011 L275.9391,78.254 C276.4421,78.284 276.8231,78.716 276.7901,79.219 C276.7601,79.703 276.3591,80.073 275.8821,80.073" id="Fill-58" fill="#382827"></path>
                        <path d="M284.8167,182.5584 C284.3137,182.5584 283.9057,182.1504 283.9057,181.6474 L283.9057,173.7154 C283.9057,173.2124 284.3137,172.8044 284.8167,172.8044 C285.3197,172.8044 285.7277,173.2124 285.7277,173.7154 L285.7277,181.6474 C285.7277,182.1504 285.3197,182.5584 284.8167,182.5584" id="Fill-60" fill="#382827"></path>
                        <path d="M168.0892,119.8845 C165.6432,100.8285 149.0412,85.9565 129.0512,85.9565 L106.0782,85.9565 C86.0882,85.9565 69.4862,100.8285 67.0402,119.8845 L58.4902,187.7385 L176.6392,187.7385 L168.0892,119.8845 Z" id="Fill-62" fill="#A4928F"></path>
                        <mask id="mask-10" fill="white">
                            <use xlink:href="#path-9"></use>
                        </mask>
                        <g id="Clip-65"></g>
                        <polygon id="Fill-64" fill="#FFFFFF" mask="url(#mask-10)" points="106.078 98.734 130.926 98.734 130.926 85.957 106.078 85.957"></polygon>
                        <path d="M149.1468,44.1316 C149.0628,44.1316 148.9858,44.1546 148.9028,44.1556 C144.7678,30.7756 132.3028,21.0526 117.5648,21.0526 C102.8268,21.0526 90.3618,30.7756 86.2268,44.1556 C86.1438,44.1546 86.0668,44.1316 85.9828,44.1316 C79.2738,44.1316 73.8358,49.5696 73.8358,56.2786 C73.8358,62.9866 79.2738,68.4256 85.9828,68.4256 C86.7128,68.4256 87.4188,68.3346 88.1148,68.2106 C93.4428,79.1156 104.6098,86.6466 117.5648,86.6466 C130.5198,86.6466 141.6868,79.1156 147.0158,68.2106 C147.7098,68.3346 148.4168,68.4256 149.1468,68.4256 C155.8558,68.4256 161.2938,62.9866 161.2938,56.2786 C161.2938,49.5696 155.8558,44.1316 149.1468,44.1316" id="Fill-66" fill="#FFFFFF" mask="url(#mask-10)"></path>
                        <path d="M117.5648,21.0525 C102.8268,21.0525 90.3618,30.7755 86.2268,44.1565 C86.1438,44.1555 86.0668,44.1315 85.9828,44.1315 C79.2738,44.1315 73.8358,49.5705 73.8358,56.2795 C73.8358,62.9875 79.2738,68.4255 85.9828,68.4255 C86.7128,68.4255 87.4188,68.3345 88.1148,68.2105 C93.4428,79.1155 104.6098,86.6465 117.5648,86.6465 C130.5198,86.6465 141.6868,79.1155 147.0158,68.2105 C147.7108,68.3345 148.4178,68.4255 149.1468,68.4255 C155.8558,68.4255 161.2938,62.9875 161.2938,56.2795 C161.2938,49.5705 155.8558,44.1315 149.1468,44.1315 C149.0628,44.1315 148.9858,44.1555 148.9028,44.1565 C144.7678,30.7755 132.3028,21.0525 117.5648,21.0525 M117.5648,22.8745 C131.2358,22.8745 143.1288,31.6435 147.1618,44.6945 L147.5668,46.0045 L148.9378,45.9785 L149.1938,45.9595 L149.2318,45.9535 C154.8858,45.9995 159.4718,50.6145 159.4718,56.2795 C159.4718,61.9715 154.8398,66.6035 149.1468,66.6035 C148.6198,66.6035 148.0608,66.5455 147.3348,66.4165 L145.9818,66.1765 L145.3778,67.4105 C140.1298,78.1525 129.4718,84.8235 117.5648,84.8235 C105.6578,84.8235 94.9998,78.1525 89.7518,67.4105 L89.1478,66.1765 L87.7948,66.4165 C87.0698,66.5455 86.5098,66.6035 85.9828,66.6035 C80.2898,66.6035 75.6578,61.9715 75.6578,56.2795 C75.6578,50.6125 80.2468,45.9975 85.9028,45.9535 L86.0758,45.9755 L86.1918,45.9785 L87.5628,46.0045 L87.9678,44.6945 C92.0008,31.6435 103.8938,22.8745 117.5648,22.8745" id="Fill-67" fill="#382827" mask="url(#mask-10)"></path>
                        <path d="M117.5657,69.6404 C107.2167,69.6404 104.4467,64.3354 104.3327,64.1104 C104.0337,63.5104 104.2757,62.7824 104.8757,62.4804 C105.4777,62.1814 106.1967,62.4234 106.4987,63.0114 C106.6047,63.2084 108.8667,67.2104 117.5657,67.2104 C126.2957,67.2104 128.5407,63.1824 128.6327,63.0094 C128.9417,62.4254 129.6717,62.1884 130.2657,62.4944 C130.8567,62.8004 131.0957,63.5144 130.7987,64.1104 C130.6857,64.3354 127.9147,69.6404 117.5657,69.6404" id="Fill-68" fill="#FF8F71" mask="url(#mask-10)"></path>
                        <path d="M107.848,53.5457 C107.345,53.5457 106.937,53.1377 106.937,52.6347 C106.937,51.1287 105.71,49.9017 104.204,49.9017 C102.698,49.9017 101.471,51.1287 101.471,52.6347 C101.471,53.1377 101.063,53.5457 100.56,53.5457 C100.057,53.5457 99.649,53.1377 99.649,52.6347 C99.649,50.1227 101.692,48.0797 104.204,48.0797 C106.716,48.0797 108.759,50.1227 108.759,52.6347 C108.759,53.1377 108.351,53.5457 107.848,53.5457" id="Fill-69" fill="#382827" mask="url(#mask-10)"></path>
                        <path d="M134.5716,53.5457 C134.0686,53.5457 133.6606,53.1377 133.6606,52.6347 C133.6606,51.1287 132.4336,49.9017 130.9266,49.9017 C129.4216,49.9017 128.1946,51.1287 128.1946,52.6347 C128.1946,53.1377 127.7866,53.5457 127.2836,53.5457 C126.7806,53.5457 126.3726,53.1377 126.3726,52.6347 C126.3726,50.1227 128.4156,48.0797 130.9266,48.0797 C133.4396,48.0797 135.4826,50.1227 135.4826,52.6347 C135.4826,53.1377 135.0746,53.5457 134.5716,53.5457" id="Fill-70" fill="#382827" mask="url(#mask-10)"></path>
                    </g>
                    <g id="Group-78" transform="translate(73.000000, 21.597000)">
                        <g id="Group-74">
                            <mask id="mask-12" fill="white">
                                <use xlink:href="#path-11"></use>
                            </mask>
                            <g id="Clip-73"></g>
                            <path d="M53.098,2.4822 C53.098,15.2282 40.126,25.5612 24.125,25.5612 C8.124,25.5612 -1.879,14.0132 -1.879,1.2672 C-1.879,-11.4788 8.124,-20.5968 24.125,-20.5968 C40.126,-20.5968 53.098,-10.2638 53.098,2.4822" id="Fill-72" fill="#382827" mask="url(#mask-12)"></path>
                        </g>
                        <g id="Group-77">
                            <mask id="mask-14" fill="white">
                                <use xlink:href="#path-13"></use>
                            </mask>
                            <g id="Clip-76"></g>
                            <path d="M90.3909,2.4822 C94.5429,10.9852 81.4419,25.5612 70.4029,25.5612 C59.3649,25.5612 50.4149,15.2282 50.4149,2.4822 C50.4149,-10.2638 59.3649,-20.5968 70.4029,-20.5968 C81.4419,-20.5968 86.2389,-6.0208 90.3909,2.4822" id="Fill-75" fill="#382827" mask="url(#mask-14)"></path>
                        </g>
                    </g>
                    <g id="Group-100" transform="translate(0.000000, 0.597000)">
                        <path d="M130.9271,99.6453 L106.0781,99.6453 C105.5751,99.6453 105.1671,99.2373 105.1671,98.7343 C105.1671,98.2313 105.5751,97.8233 106.0781,97.8233 L130.9271,97.8233 C131.4301,97.8233 131.8381,98.2313 131.8381,98.7343 C131.8381,99.2373 131.4301,99.6453 130.9271,99.6453" id="Fill-79" fill="#382827"></path>
                        <path d="M130.9271,188.6502 C130.4241,188.6502 130.0171,188.2422 130.0171,187.7392 L130.0171,85.9592 C130.0171,85.4552 130.4241,85.0472 130.9271,85.0472 C131.4301,85.0472 131.8381,85.4552 131.8381,85.9592 L131.8381,187.7392 C131.8381,188.2422 131.4301,188.6502 130.9271,188.6502" id="Fill-81" fill="#382827"></path>
                        <path d="M106.0784,188.6502 C105.5754,188.6502 105.1674,188.2422 105.1674,187.7392 L105.1674,85.9592 C105.1674,85.4552 105.5754,85.0472 106.0784,85.0472 C106.5814,85.0472 106.9894,85.4552 106.9894,85.9592 L106.9894,187.7392 C106.9894,188.2422 106.5814,188.6502 106.0784,188.6502" id="Fill-83" fill="#382827"></path>
                        <mask id="mask-16" fill="white">
                            <use xlink:href="#path-15"></use>
                        </mask>
                        <g id="Clip-86"></g>
                        <polygon id="Fill-85" fill="#FFFFFF" mask="url(#mask-16)" points="230.938 157.874 247.944 157.874 247.944 148.156 230.938 148.156"></polygon>
                        <path d="M268.8597,165.3933 C267.5187,156.3113 258.6257,149.1903 247.7797,148.8193 C247.7877,148.9413 247.8217,149.0563 247.8217,149.1793 C247.8217,152.6733 244.5157,155.5063 240.4367,155.5063 C236.3587,155.5063 233.0517,152.6733 233.0517,149.1793 C233.0517,149.0563 233.0867,148.9413 233.0947,148.8193 C222.2487,149.1903 213.3547,156.3113 212.0147,165.3933 L207.2067,198.6123 L273.6687,198.6123 L268.8597,165.3933 Z" id="Fill-87" fill="#EFEDE4" mask="url(#mask-16)"></path>
                        <path d="M248.6253,154.2068 L240.8633,158.6878 L233.1023,154.2068 C231.2533,153.1398 228.9403,154.4738 228.9403,156.6088 L228.9403,165.7248 C228.9403,167.8598 231.2533,169.1948 233.1023,168.1268 L240.8633,163.6458 L248.6253,168.1268 C250.4753,169.1948 252.7863,167.8598 252.7863,165.7248 L252.7863,156.6088 C252.7863,154.4738 250.4753,153.1398 248.6253,154.2068" id="Fill-88" fill="#FFD62C" mask="url(#mask-16)"></path>
                        <path d="M231.7142,154.7429 C231.3942,154.7429 231.0752,154.8289 230.7832,154.9969 C230.2002,155.3319 229.8522,155.9339 229.8522,156.6079 L229.8522,165.7249 C229.8522,166.3989 230.2002,167.0019 230.7832,167.3369 C231.3672,167.6739 232.0632,167.6739 232.6462,167.3369 L240.8642,162.5939 L249.0802,167.3369 C249.6632,167.6739 250.3612,167.6739 250.9442,167.3369 C251.5262,167.0019 251.8752,166.3989 251.8752,165.7249 L251.8752,156.6079 C251.8752,155.9339 251.5262,155.3319 250.9442,154.9969 C250.3612,154.6599 249.6632,154.6599 249.0802,154.9969 L240.8642,159.7399 L232.6462,154.9969 C232.3552,154.8289 232.0342,154.7429 231.7142,154.7429 M231.7142,169.4149 C231.0822,169.4149 230.4492,169.2489 229.8722,168.9169 C228.7172,168.2499 228.0292,167.0559 228.0292,165.7249 L228.0292,156.6079 C228.0292,155.2769 228.7172,154.0839 229.8722,153.4169 C231.0262,152.7509 232.4042,152.7529 233.5572,153.4169 L240.8642,157.6379 L248.1692,153.4169 C249.3222,152.7529 250.7032,152.7529 251.8562,153.4169 C253.0092,154.0839 253.6962,155.2769 253.6962,156.6079 L253.6962,165.7249 C253.6962,167.0559 253.0092,168.2499 251.8562,168.9169 C250.7032,169.5809 249.3222,169.5809 248.1692,168.9169 L240.8642,164.6959 L233.5572,168.9169 C232.9812,169.2489 232.3472,169.4149 231.7142,169.4149" id="Fill-89" fill="#FFD62C" mask="url(#mask-16)"></path>
                        <path d="M252.7864,166.6365 C252.2834,166.6365 251.8754,166.2285 251.8754,165.7255 L251.8754,156.6085 C251.8754,155.9345 251.5264,155.3315 250.9444,154.9965 C250.3614,154.6595 249.6634,154.6595 249.0804,154.9965 L240.8644,159.7405 L232.6454,154.9965 C232.0624,154.6595 231.3674,154.6595 230.7834,154.9965 C230.2004,155.3315 229.8514,155.9345 229.8514,156.6085 L229.8514,165.7255 C229.8514,166.2285 229.4434,166.6365 228.9404,166.6365 C228.4374,166.6365 228.0294,166.2285 228.0294,165.7255 L228.0294,156.6085 C228.0294,155.2775 228.7174,154.0835 229.8724,153.4165 C231.0254,152.7505 232.4044,152.7525 233.5574,153.4165 L240.8644,157.6375 L248.1694,153.4165 C249.3224,152.7525 250.7034,152.7525 251.8554,153.4165 C253.0094,154.0835 253.6964,155.2775 253.6964,156.6085 L253.6964,165.7255 C253.6964,166.2285 253.2894,166.6365 252.7864,166.6365" id="Fill-90" fill="#382827" mask="url(#mask-16)"></path>
                        <path d="M213.1653,154.0779 C211.5563,141.5399 200.6323,131.7549 187.4783,131.7549 L172.3623,131.7549 C159.2093,131.7549 148.2853,141.5399 146.6763,154.0779 L141.0503,198.7249 L218.7913,198.7249 L213.1653,154.0779 Z" id="Fill-91" fill="#FF8F71" mask="url(#mask-16)"></path>
                        <polyline id="Fill-92" fill="#FFFFFF" mask="url(#mask-16)" points="188.5589 130.4148 179.9199 139.0528 190.7179 145.5308 192.6839 132.3648"></polyline>
                        <path d="M190.7181,146.4422 C190.5541,146.4422 190.3931,146.3992 190.2481,146.3112 L179.4511,139.8332 C179.2111,139.6882 179.0501,139.4412 179.0171,139.1642 C178.9821,138.8852 179.0781,138.6062 179.2761,138.4072 L187.9131,129.7682 C188.2701,129.4132 188.8491,129.4132 189.2041,129.7682 C189.5581,130.1252 189.5581,130.7032 189.2041,131.0592 L181.3901,138.8722 L190.0181,144.0482 L191.7831,132.2292 C191.8591,131.7352 192.2831,131.3912 192.8201,131.4632 C193.3161,131.5392 193.6591,132.0012 193.5861,132.5002 L191.6191,145.6672 C191.5741,145.9672 191.3821,146.2262 191.1071,146.3542 C190.9841,146.4142 190.8511,146.4422 190.7181,146.4422" id="Fill-93" fill="#382827" mask="url(#mask-16)"></path>
                        <polyline id="Fill-94" fill="#FFFFFF" mask="url(#mask-16)" points="171.2825 130.4148 179.9205 139.0528 169.1235 145.5308 167.3505 132.3648"></polyline>
                        <path d="M169.1243,146.4422 C168.9883,146.4422 168.8533,146.4112 168.7293,146.3522 C168.4523,146.2192 168.2633,145.9562 168.2203,145.6522 L166.4473,132.4852 C166.3813,131.9872 166.7323,131.5292 167.2303,131.4602 C167.7193,131.4082 168.1883,131.7452 168.2553,132.2432 L169.8433,144.0372 L178.4523,138.8722 L170.6383,131.0592 C170.2843,130.7032 170.2843,130.1252 170.6383,129.7682 C170.9933,129.4132 171.5723,129.4132 171.9283,129.7682 L180.5663,138.4072 C180.7633,138.6062 180.8603,138.8852 180.8243,139.1642 C180.7913,139.4412 180.6303,139.6882 180.3913,139.8332 L169.5943,146.3112 C169.4483,146.3992 169.2873,146.4422 169.1243,146.4422" id="Fill-95" fill="#382827" mask="url(#mask-16)"></path>
                        <path d="M179.9212,151.0066 C178.6372,151.0066 177.5932,152.0506 177.5932,153.3336 C177.5932,154.6176 178.6372,155.6636 179.9212,155.6636 C181.2042,155.6636 182.2482,154.6176 182.2482,153.3336 C182.2482,152.0506 181.2042,151.0066 179.9212,151.0066 M179.9212,157.4856 C177.6342,157.4856 175.7722,155.6236 175.7722,153.3336 C175.7722,151.0466 177.6342,149.1846 179.9212,149.1846 C182.2082,149.1846 184.0702,151.0466 184.0702,153.3336 C184.0702,155.6236 182.2082,157.4856 179.9212,157.4856" id="Fill-96" fill="#382827" mask="url(#mask-16)"></path>
                        <path d="M179.9212,161.8035 C178.6372,161.8035 177.5932,162.8475 177.5932,164.1315 C177.5932,165.4145 178.6372,166.4605 179.9212,166.4605 C181.2042,166.4605 182.2482,165.4145 182.2482,164.1315 C182.2482,162.8475 181.2042,161.8035 179.9212,161.8035 M179.9212,168.2825 C177.6342,168.2825 175.7722,166.4205 175.7722,164.1315 C175.7722,161.8445 177.6342,159.9825 179.9212,159.9825 C182.2082,159.9825 184.0702,161.8445 184.0702,164.1315 C184.0702,166.4205 182.2082,168.2825 179.9212,168.2825" id="Fill-97" fill="#382827" mask="url(#mask-16)"></path>
                        <path d="M205.0609,98.5222 C204.9939,98.5222 204.9329,98.5412 204.8669,98.5422 C201.5759,87.8902 191.6529,80.1512 179.9199,80.1512 C168.1889,80.1512 158.2659,87.8902 154.9749,98.5422 C154.9089,98.5412 154.8469,98.5222 154.7809,98.5222 C149.4409,98.5222 145.1119,102.8512 145.1119,108.1912 C145.1119,113.5322 149.4409,117.8612 154.7809,117.8612 C155.3619,117.8612 155.9239,117.7882 156.4769,117.6902 C160.7189,126.3702 169.6089,132.3652 179.9199,132.3652 C190.2329,132.3652 199.1229,126.3702 203.3639,117.6902 C203.9169,117.7882 204.4799,117.8612 205.0609,117.8612 C210.4009,117.8612 214.7299,113.5322 214.7299,108.1912 C214.7299,102.8512 210.4009,98.5222 205.0609,98.5222" id="Fill-98" fill="#FFFFFF" mask="url(#mask-16)"></path>
                        <path d="M179.9202,80.1511 C168.1892,80.1511 158.2662,87.8901 154.9752,98.5421 C154.9082,98.5411 154.8472,98.5221 154.7802,98.5221 C149.4412,98.5221 145.1112,102.8511 145.1112,108.1911 C145.1112,113.5321 149.4412,117.8611 154.7802,117.8611 C155.3612,117.8611 155.9242,117.7881 156.4772,117.6901 C160.7192,126.3701 169.6072,132.3651 179.9202,132.3651 C190.2332,132.3651 199.1222,126.3701 203.3632,117.6901 C203.9162,117.7881 204.4802,117.8611 205.0612,117.8611 C210.4002,117.8611 214.7302,113.5321 214.7302,108.1911 C214.7302,102.8511 210.4002,98.5221 205.0612,98.5221 C204.9932,98.5221 204.9332,98.5411 204.8662,98.5421 C201.5752,87.8901 191.6522,80.1511 179.9202,80.1511 M179.9202,81.9731 C190.6392,81.9731 199.9642,88.8471 203.1252,99.0801 L203.5292,100.3871 L204.8982,100.3641 C204.9822,100.3621 205.0652,100.3551 205.1502,100.3441 C209.4362,100.3931 212.9072,103.8951 212.9072,108.1911 C212.9072,112.5181 209.3882,116.0391 205.0612,116.0391 C204.6632,116.0391 204.2382,115.9951 203.6832,115.8961 L202.3302,115.6551 L201.7272,116.8901 C197.6112,125.3111 189.2562,130.5431 179.9202,130.5431 C170.5852,130.5431 162.2302,125.3111 158.1142,116.8901 L157.5112,115.6551 L156.1582,115.8961 C155.6032,115.9951 155.1782,116.0391 154.7802,116.0391 C150.4532,116.0391 146.9342,112.5181 146.9342,108.1911 C146.9342,103.8931 150.4072,100.3911 154.6942,100.3441 L154.8242,100.3621 L154.9432,100.3641 L156.3122,100.3871 L156.7162,99.0801 C159.8772,88.8471 169.2022,81.9731 179.9202,81.9731" id="Fill-99" fill="#382827" mask="url(#mask-16)"></path>
                    </g>
                    <g id="Group-103" transform="translate(145.000000, 80.597000)">
                        <mask id="mask-18" fill="white">
                            <use xlink:href="#path-17"></use>
                        </mask>
                        <g id="Clip-102"></g>
                        <polygon id="Fill-101" fill="#382827" mask="url(#mask-18)" points="5.913 12.72 63.928 12.72 63.928 -2.751 5.913 -2.751"></polygon>
                    </g>
                    <g id="Group-122" transform="translate(152.000000, 94.597000)">
                        <path d="M20.1849,9.3572 C20.1849,10.9592 18.8869,12.2572 17.2849,12.2572 C15.6829,12.2572 14.3839,10.9592 14.3839,9.3572 C14.3839,7.7542 15.6829,6.4562 17.2849,6.4562 C18.8869,6.4562 20.1849,7.7542 20.1849,9.3572" id="Fill-104" fill="#382827"></path>
                        <path d="M41.4573,9.3572 C41.4573,10.9592 40.1583,12.2572 38.5573,12.2572 C36.9543,12.2572 35.6553,10.9592 35.6553,9.3572 C35.6553,7.7542 36.9543,6.4562 38.5573,6.4562 C40.1583,6.4562 41.4573,7.7542 41.4573,9.3572" id="Fill-106" fill="#382827"></path>
                        <path d="M27.9212,25.0759 C19.5292,25.0759 17.2572,20.7219 17.1642,20.5379 C16.8652,19.9369 17.1082,19.2089 17.7072,18.9079 C18.3082,18.6089 19.0262,18.8459 19.3302,19.4359 C19.4152,19.5909 21.1762,22.6459 27.9212,22.6459 C34.6922,22.6459 36.4422,19.5649 36.5142,19.4339 C36.8292,18.8499 37.5552,18.6179 38.1492,18.9269 C38.7342,19.2319 38.9742,19.9439 38.6782,20.5379 C38.5852,20.7219 36.3102,25.0759 27.9212,25.0759" id="Fill-108" fill="#FF8F71"></path>
                        <path d="M18.2513,2.533 C13.9543,2.533 10.4593,6.027 10.4593,10.324 C10.4593,14.621 13.9543,18.115 18.2513,18.115 C22.5473,18.115 26.0423,14.621 26.0423,10.324 C26.0423,6.027 22.5473,2.533 18.2513,2.533 M18.2513,19.937 C12.9503,19.937 8.6383,15.624 8.6383,10.324 C8.6383,5.024 12.9503,0.711 18.2513,0.711 C23.5513,0.711 27.8633,5.024 27.8633,10.324 C27.8633,15.624 23.5513,19.937 18.2513,19.937" id="Fill-110" fill="#EFEDE4"></path>
                        <path d="M37.5911,2.533 C33.2941,2.533 29.7971,6.027 29.7971,10.324 C29.7971,14.621 33.2941,18.115 37.5911,18.115 C41.8881,18.115 45.3821,14.621 45.3821,10.324 C45.3821,6.027 41.8881,2.533 37.5911,2.533 M37.5911,19.937 C32.2881,19.937 27.9761,15.624 27.9761,10.324 C27.9761,5.024 32.2881,0.711 37.5911,0.711 C42.8911,0.711 47.2041,5.024 47.2041,10.324 C47.2041,15.624 42.8911,19.937 37.5911,19.937" id="Fill-112" fill="#EFEDE4"></path>
                        <path d="M12.4505,4.4666 L1.8145,4.4666 C1.3115,4.4666 0.9035,4.0586 0.9035,3.5556 C0.9035,3.0526 1.3115,2.6446 1.8145,2.6446 L12.4505,2.6446 C12.9535,2.6446 13.3615,3.0526 13.3615,3.5556 C13.3615,4.0586 12.9535,4.4666 12.4505,4.4666" id="Fill-114" fill="#EFEDE4"></path>
                        <path d="M53.0618,4.4666 L42.4238,4.4666 C41.9208,4.4666 41.5128,4.0586 41.5128,3.5556 C41.5128,3.0526 41.9208,2.6446 42.4238,2.6446 L53.0618,2.6446 C53.5648,2.6446 53.9728,3.0526 53.9728,3.5556 C53.9728,4.0586 53.5648,4.4666 53.0618,4.4666" id="Fill-116" fill="#EFEDE4"></path>
                        <path d="M113.1859,23.6218 C113.1209,23.6218 113.0599,23.6398 112.9959,23.6418 C109.7679,13.1968 100.0389,5.6078 88.5349,5.6078 C77.0309,5.6078 67.3019,13.1968 64.0749,23.6418 C64.0099,23.6398 63.9499,23.6218 63.8839,23.6218 C58.6479,23.6218 54.4029,27.8668 54.4029,33.1028 C54.4029,38.3388 58.6479,42.5838 63.8839,42.5838 C64.4549,42.5838 65.0049,42.5128 65.5479,42.4158 C69.7069,50.9278 78.4229,56.8058 88.5349,56.8058 C98.6469,56.8058 107.3629,50.9278 111.5219,42.4158 C112.0649,42.5128 112.6159,42.5838 113.1859,42.5838 C118.4219,42.5838 122.6669,38.3388 122.6669,33.1028 C122.6669,27.8668 118.4219,23.6218 113.1859,23.6218" id="Fill-118" fill="#FFFFFF"></path>
                        <path d="M88.5345,5.6072 C77.0305,5.6072 67.3025,13.1972 64.0745,23.6412 C64.0105,23.6392 63.9495,23.6222 63.8845,23.6222 C58.6475,23.6222 54.4025,27.8672 54.4025,33.1032 C54.4025,38.3392 58.6475,42.5842 63.8845,42.5842 C64.4545,42.5842 65.0055,42.5122 65.5485,42.4162 C69.7075,50.9272 78.4235,56.8052 88.5345,56.8052 C98.6465,56.8052 107.3625,50.9272 111.5215,42.4162 C112.0645,42.5122 112.6155,42.5842 113.1855,42.5842 C118.4225,42.5842 122.6665,38.3392 122.6665,33.1032 C122.6665,27.8672 118.4225,23.6222 113.1855,23.6222 C113.1205,23.6222 113.0595,23.6392 112.9945,23.6412 C109.7675,13.1972 100.0395,5.6072 88.5345,5.6072 M88.5345,7.4292 C99.0285,7.4292 108.1585,14.1612 111.2545,24.1782 L111.6585,25.4882 L113.0275,25.4622 C113.1105,25.4612 113.1915,25.4552 113.2755,25.4442 C117.4575,25.4932 120.8455,28.9102 120.8455,33.1032 C120.8455,37.3262 117.4085,40.7612 113.1855,40.7612 C112.7995,40.7612 112.3845,40.7182 111.8415,40.6232 L110.4885,40.3812 L109.8855,41.6162 C105.8555,49.8612 97.6755,54.9832 88.5345,54.9832 C79.3945,54.9832 71.2145,49.8612 67.1845,41.6162 L66.5815,40.3812 L65.2285,40.6232 C64.6855,40.7182 64.2705,40.7612 63.8845,40.7612 C59.6615,40.7612 56.2245,37.3262 56.2245,33.1032 C56.2245,28.9082 59.6145,25.4902 63.7985,25.4442 L63.9245,25.4612 L64.0415,25.4622 L65.4115,25.4882 L65.8155,24.1782 C68.9105,14.1612 78.0415,7.4292 88.5345,7.4292" id="Fill-120" fill="#382827"></path>
                    </g>
                    <g id="Group-129" transform="translate(206.000000, 99.597000)">
                        <g id="Group-125">
                            <mask id="mask-20" fill="white">
                                <use xlink:href="#path-19"></use>
                            </mask>
                            <g id="Clip-124"></g>
                            <path d="M35.4827,2.5037 C35.4827,12.4527 27.4187,20.5187 17.4687,20.5187 C7.5197,20.5187 1.3007,11.5047 1.3007,1.5557 C1.3007,-8.3923 7.5197,-15.5103 17.4687,-15.5103 C27.4187,-15.5103 35.4827,-7.4443 35.4827,2.5037" id="Fill-123" fill="#382827" mask="url(#mask-20)"></path>
                        </g>
                        <g id="Group-128">
                            <mask id="mask-22" fill="white">
                                <use xlink:href="#path-21"></use>
                            </mask>
                            <g id="Clip-127"></g>
                            <path d="M69.6146,2.5037 C73.3566,9.1407 61.5506,20.5187 51.6006,20.5187 C41.6516,20.5187 33.5876,12.4527 33.5876,2.5037 C33.5876,-7.4443 41.6516,-15.5103 51.6006,-15.5103 C61.5506,-15.5103 65.8736,-4.1333 69.6146,2.5037" id="Fill-126" fill="#382827" mask="url(#mask-22)"></path>
                        </g>
                    </g>
                    <g id="Group-150" transform="translate(0.000000, 0.597000)">
                        <path d="M232.7132,122.3621 C232.7132,123.9331 231.4402,125.2071 229.8682,125.2071 C228.2982,125.2071 227.0252,123.9331 227.0252,122.3621 C227.0252,120.7921 228.2982,119.5181 229.8682,119.5181 C231.4402,119.5181 232.7132,120.7921 232.7132,122.3621" id="Fill-130" fill="#382827"></path>
                        <path d="M253.5716,122.3621 C253.5716,123.9331 252.2986,125.2071 250.7266,125.2071 C249.1566,125.2071 247.8836,123.9331 247.8836,122.3621 C247.8836,120.7921 249.1566,119.5181 250.7266,119.5181 C252.2986,119.5181 253.5716,120.7921 253.5716,122.3621" id="Fill-132" fill="#382827"></path>
                        <path d="M253.5716,131.4646 C253.5716,131.4646 250.9166,140.7556 240.2986,140.7556 C229.6786,140.7556 227.0246,131.4646 227.0246,131.4646 L253.5716,131.4646 Z" id="Fill-134" fill="#FF8F71"></path>
                        <path d="M240.6722,91.9607 C243.4852,94.7737 243.4852,99.3327 240.6722,102.1457 L230.4872,91.9607 C233.3002,89.1477 237.8592,89.1477 240.6722,91.9607" id="Fill-136" fill="#382827"></path>
                        <mask id="mask-24" fill="white">
                            <use xlink:href="#path-23"></use>
                        </mask>
                        <g id="Clip-139"></g>
                        <polygon id="Fill-138" fill="#FFFFFF" mask="url(#mask-24)" points="234.989 134.119 245.608 134.119 245.608 131.465 234.989 131.465"></polygon>
                        <path d="M253.5716,131.8064 L227.0236,131.8064 C226.5206,131.8064 226.1126,131.3984 226.1126,130.8954 C226.1126,130.3924 226.5206,129.9844 227.0236,129.9844 L253.5716,129.9844 C254.0746,129.9844 254.4826,130.3924 254.4826,130.8954 C254.4826,131.3984 254.0746,131.8064 253.5716,131.8064" id="Fill-140" fill="#382827" mask="url(#mask-24)"></path>
                        <path d="M217.7991,191.7683 C217.3321,191.7683 216.9361,191.4123 216.8931,190.9403 L214.0511,159.5953 C214.0031,159.0923 214.3731,158.6513 214.8741,158.6063 C215.4171,158.5633 215.8191,158.9303 215.8631,159.4293 L218.7051,190.7743 C218.7531,191.2773 218.3831,191.7173 217.8821,191.7633 C217.8541,191.7653 217.8251,191.7683 217.7991,191.7683" id="Fill-141" fill="#382827" mask="url(#mask-24)"></path>
                        <path d="M270.971,186.3377 L268.361,168.2897 C267.837,164.5367 267.242,160.2857 262.828,155.8797 C258.141,151.1987 249.947,149.7307 249.864,149.7167 C249.367,149.6307 249.035,149.1587 249.123,148.6627 C249.206,148.1717 249.635,147.8277 250.176,147.9227 C250.534,147.9837 259.026,149.5077 264.115,154.5897 C268.961,159.4267 269.628,164.2017 270.164,168.0387 L272.774,186.0757 L270.971,186.3377 Z" id="Fill-142" fill="#382827" mask="url(#mask-24)"></path>
                        <path d="M160.512,298.274859 L201.74,200.530302 C201.74,200.530302 150.474,152.545717 90.084,177.040409 L47.664,157.479787 C35.12,151.695665 20.329,157.69413 14.797,170.810871 C9.265,183.927613 15.002,199.392717 27.547,205.176839 L80.881,229.768769 L108.866,274.461883 C120.183043,288.179138 133.123787,296.826177 147.688232,300.403 C162.252677,303.979823 166.527267,303.270443 160.512,298.274859 Z" id="Fill-143" fill="#FFFFFF" mask="url(#mask-24)"></path>
                        <path d="M80.8802,230.72087 C80.7572,230.72087 80.6312,230.695776 80.5132,230.639315 L27.1802,206.046339 C20.8912,203.146959 16.0492,197.833346 13.5432,191.086248 C11.0402,184.342288 11.1902,177.003395 13.9662,170.427773 C16.7362,163.85215 21.8182,158.786338 28.2722,156.169263 C34.7222,153.552188 41.7392,153.709024 48.0312,156.608405 L90.1092,176.009053 C150.1652,151.910635 201.8302,199.335837 202.3452,199.819939 C202.7202,200.169161 202.7532,200.772458 202.4162,201.164548 C202.0792,201.55873 201.5052,201.59428 201.1302,201.23983 C200.6202,200.763047 149.5722,153.932777 90.4152,177.926638 C90.1882,178.016558 89.9392,178.013421 89.7182,177.908864 L47.2962,158.349287 C41.4602,155.657977 34.9362,155.511596 28.9312,157.94465 C22.9312,160.379794 18.2072,165.084883 15.6312,171.19627 C13.0552,177.306612 12.9172,184.125854 15.2442,190.399306 C17.5692,196.670666 22.0692,201.607872 27.9152,204.304411 L81.2482,228.897386 C81.7082,229.108593 81.9172,229.671112 81.7132,230.152077 C81.5642,230.509663 81.2302,230.72087 80.8802,230.72087" id="Fill-144" fill="#382827" mask="url(#mask-24)"></path>
                        <path d="M349.823065,297.999213 L391.051065,200.254656 C391.051065,200.254656 339.785065,152.270071 279.395065,176.764762 L236.975065,157.20414 C224.431065,151.420018 209.640065,157.418483 204.108065,170.535225 C198.576065,183.651966 204.313065,199.11707 216.858065,204.901192 L270.192065,229.493122 L298.177065,274.186236 C309.494108,287.903491 322.434852,296.55053 336.999297,300.127353 C351.563742,303.704176 355.838331,302.994796 349.823065,297.999213 Z" id="Fill-143" fill="#FFFFFF" mask="url(#mask-24)" transform="translate(296.525532, 228.682994) scale(-1, 1) translate(-296.525532, -228.682994) "></path>
                        <path d="M322.1185,230.72087 C321.7695,230.72087 321.4345,230.509663 321.2855,230.152077 C321.0815,229.671112 321.2905,229.108593 321.7505,228.897386 L375.0865,204.304411 C380.9295,201.607872 385.4305,196.670666 387.7575,190.399306 C390.0845,184.125854 389.9465,177.306612 387.3705,171.19627 C384.7915,165.084883 380.0675,160.379794 374.0705,157.94465 C368.0705,155.514733 361.5515,155.653794 355.7025,158.349287 L313.2835,177.908864 C313.0625,178.01133 312.8135,178.013421 312.5865,177.926638 C253.4265,153.934869 202.3785,200.763047 201.8685,201.23983 C201.4965,201.59428 200.9195,201.55873 200.5825,201.164548 C200.2455,200.772458 200.2785,200.169161 200.6535,199.819939 C201.1685,199.338974 252.8315,151.917954 312.8915,176.009053 L354.9675,156.608405 C361.2595,153.711116 368.2745,153.554279 374.7275,156.169263 C381.1815,158.786338 386.2625,163.85215 389.0355,170.427773 C391.8115,177.003395 391.9585,184.342288 389.4555,191.08834 C386.9525,197.833346 382.1105,203.146959 375.8215,206.046339 L322.4865,230.639315 C322.3675,230.695776 322.2415,230.72087 322.1185,230.72087" id="Fill-146" fill="#382827" mask="url(#mask-24)"></path>
                        <polygon id="Fill-147" fill="#382827" mask="url(#mask-24)" points="200.827 298.999 202.649 298.999 202.649 198.516 200.827 198.516"></polygon>
                        <path d="M351.2737,171.865 L363.2527,200.164 L370.8577,196.942 C380.5137,192.857 385.6837,183.182 382.3807,175.382 C379.0787,167.578 368.5337,164.553 358.8787,168.646 L351.2737,171.865 Z M362.2647,202.504 L348.9087,170.947 L349.7077,170.577 C350.0357,170.418 350.1637,170.356 350.2957,170.3 L358.1687,166.967 C368.7557,162.489 380.3647,165.944 384.0607,174.67 C387.7527,183.398 382.1487,194.142 371.5697,198.622 L362.2647,202.504 Z" id="Fill-148" fill="#382827" mask="url(#mask-24)"></path>
                        <path d="M35.761,166.8211 C29.168,166.8211 23.344,169.9391 21.04,175.3821 C17.738,183.1821 22.907,192.8541 32.564,196.9421 L40.167,200.1621 L52.146,171.8651 L44.539,168.6461 C41.621,167.4101 38.617,166.8211 35.761,166.8211 Z M41.154,202.5081 L39.728,201.9551 L31.852,198.6221 C21.271,194.1401 15.666,183.3981 19.361,174.6701 C23.057,165.9441 34.672,162.4871 45.251,166.9671 L53.125,170.3001 C53.261,170.3591 53.396,170.4231 53.529,170.4891 L54.3,170.8691 L54.169,171.7601 L41.154,202.5081 Z" id="Fill-149" fill="#382827" mask="url(#mask-24)"></path>
                    </g>
                </g>
                <g id="Group-9" transform="translate(6.000000, 109.000000)">
                    <g id="Group-3" transform="translate(0.000000, 0.945500)">
                        <mask id="mask-26" fill="white">
                            <use xlink:href="#path-25"></use>
                        </mask>
                        <g id="Clip-2"></g>
                        <path d="M60.6567,30.3828 C60.6567,47.1328 47.0787,60.7108 30.3287,60.7108 C13.5787,60.7108 0.0007,47.1328 0.0007,30.3828 C0.0007,13.6328 13.5787,0.0548 30.3287,0.0548 C47.0787,0.0548 60.6567,13.6328 60.6567,30.3828" id="Fill-1" fill="#FF8F71" mask="url(#mask-26)"></path>
                    </g>
                    <path d="M70.7367,49.9929 C69.1427,49.9929 67.6427,50.3759 66.3067,51.0399 C64.8407,43.8679 58.4957,38.4739 50.8897,38.4739 C42.1997,38.4739 35.1547,45.5189 35.1547,54.2099 C35.1547,62.8999 42.1997,69.9459 50.8897,69.9459 C51.5517,69.9459 52.2007,69.8909 52.8407,69.8119 L69.1797,69.8119 C69.6887,69.8919 70.2057,69.9459 70.7367,69.9459 C76.2467,69.9459 80.7127,65.4789 80.7127,59.9699 C80.7127,54.4599 76.2467,49.9929 70.7367,49.9929" id="Fill-4" fill="#EFEDE4"></path>
                    <g id="Group-8" transform="translate(34.000000, 36.945500)">
                        <mask id="mask-28" fill="white">
                            <use xlink:href="#path-27"></use>
                        </mask>
                        <g id="Clip-7"></g>
                    </g>
                </g>
                <g id="Group-10" transform="translate(326.000000, 0.000000)">
                    <path d="M59.4453,13.7119 C59.1763,6.6489 53.3823,0.9999 46.2533,0.9999 C39.1293,0.9999 33.3373,6.6399 33.0603,13.6959 L28.9423,13.6959 C25.1643,13.6959 22.0723,16.7879 22.0723,20.5659 L22.0723,20.5669 C22.0723,24.3449 25.1643,27.4369 28.9423,27.4369 L43.4673,27.4369 C43.6613,27.4369 43.8503,27.4239 44.0403,27.4079 C44.2283,27.4239 44.4193,27.4369 44.6113,27.4369 L59.1363,27.4369 C62.9163,27.4369 66.0073,24.3449 66.0073,20.5669 L66.0073,20.5659 C66.0073,16.8919 63.0813,13.8759 59.4453,13.7119" id="Fill-1" fill="#EFEDE4"></path>
                    <path d="M21.6309,47.0542 L7.6519,47.0542 C3.9929,47.0542 0.9999,44.0612 0.9999,40.4032 C0.9999,36.7452 3.9929,33.7522 7.6519,33.7522 L21.6309,33.7522 C25.2889,33.7522 28.2819,36.7452 28.2819,40.4032 C28.2819,44.0612 25.2889,47.0542 21.6309,47.0542" id="Fill-5" fill="#EFEDE4"></path>
                    <g id="Group-9" transform="translate(0.000000, 32.054200)">
                        <mask id="mask-30" fill="white">
                            <use xlink:href="#path-29"></use>
                        </mask>
                        <g id="Clip-8"></g>
                    </g>
                </g>
            </g>
        </g>
    </g>
</svg>